Marilou Knight,https://www.mousehuntgame.com/profile.php?snuid=1808176721
Joycee Kong,https://www.mousehuntgame.com/profile.php?snuid=692533863
Avinash Muralidhara,https://www.mousehuntgame.com/profile.php?snuid=100001988449946
Justine Woodward,https://apps.facebook.com/mousehunt/hunterprofile.php?snuid=1387732196
Caroline Teuchtler-Smith,https://apps.facebook.com/mousehunt/hunterprofile.php?snuid=1803116512
Anders Anderson,https://apps.facebook.com/mousehunt/profile.php?snuid=100004210454415
Adryan-Autumn Riddle,https://apps.facebook.com/mousehunt/profile.php?snuid=100001643800107
Angie Idlewine,https://www.mousehuntgame.com/profile.php?snuid=1456417030
Lillian Snowy,https://apps.facebook.com/mousehunt/hunterprofile.php?snuid=100003939406249
Sara Arroyo,https://apps.facebook.com/mousehunt/hunterprofile.php?snuid=590001244
Yvonne Tygress Berrie,https://apps.facebook.com/mousehunt/hunterprofile.php?snuid=602336249
Ashnod Eidolon,https://apps.facebook.com/mousehunt/hunterprofile.php?snuid=534852525
Eric Phan,https://apps.facebook.com/mousehunt/profile.php?snuid=689211014
Emma Chambers,https://apps.facebook.com/mousehunt/hunterprofile.php?snuid=526345194
Kirree Bellamy,https://apps.facebook.com/mousehunt/hunterprofile.php?snuid=1119184183
Darren Walker,https://www.mousehuntgame.com/hunterprofile.php?snuid=100002055903997
Lady Tart,https://www.mousehuntgame.com/hunterprofile.php?snuid=728795855
Mandy Poulius,https://www.mousehuntgame.com/hunterprofile.php?snuid=1352345720
Billy Lane,https://www.mousehuntgame.com/hunterprofile.php?snuid=734944749
Daniel Nugroho,https://www.mousehuntgame.com/hunterprofile.php?snuid=100000045366549
Athina Leung,https://apps.facebook.com/mousehunt/hunterprofile.php?snuid=1121003771
Praiselin Thomas,https://www.mousehuntgame.com/hunterprofile.php?snuid=1179061809
Terry Smalley,https://apps.facebook.com/mousehunt/hunterprofile.php?snuid=834582479
Deborah Wager,https://www.mousehuntgame.com/hunterprofile.php?snuid=1076447663
Candice Jordan,https://apps.facebook.com/mousehunt/profile.php?snuid=583001204
Rose Gosling,http://www.mousehuntgame.com/hunterprofile.php?snuid=646855168
Sean Richardson,https://www.mousehuntgame.com/hunterprofile.php?snuid=1354487755
Stuartt Cuthill,https://www.mousehuntgame.com/hunterprofile.php?snuid=680288643
Susan Brasel,https://apps.facebook.com/mousehunt/hunterprofile.php?snuid=1437582472
Tori Blake,https://www.mousehuntgame.com/profile.php?snuid=100000235486670
Kari Merete,https://apps.facebook.com/mousehunt/hunterprofile.php?snuid=644646310
Jenni Peterson,https://apps.facebook.com/mousehunt/hunterprofile.php?snuid=798359599
Sandi Dermott,https://apps.facebook.com/mousehunt/hunterprofile.php?snuid=605186435
Shameel Ghany,https://apps.facebook.com/mousehunt/hunterprofile.php?snuid=1315967787
Sharon McIntosh,https://apps.facebook.com/mousehunt/hunterprofile.php?snuid=1241910887
Jeff Ridler,https://apps.facebook.com/mousehunt/hunterprofile.php?snuid=1074038188
Sudantha Bandara,https://apps.facebook.com/mousehunt/hunterprofile.php?snuid=1498760130
Asija Baničević,https://apps.facebook.com/mousehunt/hunterprofile.php?snuid=1568535639
Zsuzsanna Sas,https://apps.facebook.com/mousehunt/hunterprofile.php?snuid=1547100513
Brigit Jolley,https://apps.facebook.com/mousehunt/hunterprofile.php?snuid=1359756297
Tracey Rutherford,https://apps.facebook.com/mousehunt/hunterprofile.php?snuid=1079035604
Susan Morisato,https://apps.facebook.com/mousehunt/hunterprofile.php?snuid=100000097381624