Ivo Tijan,https://www.mousehuntgame.com/profile.php?snuid=538207153
Nikola Ivkov,https://www.mousehuntgame.com/hunterprofile.php?snuid=100000273878982
Ana Prpic,https://www.mousehuntgame.com/hunterprofile.php?snuid=573823990
Arijan Karic,https://www.mousehuntgame.com/hunterprofile.php?snuid=100000587535227